{
    "save_path":"step2",
    "base_model":"step1",
    "sub_soft_prompt_values":[6,2,3,6,2,3,6],
    "sub_soft_prompt_lengths":[50,15,15,15,15,15,15],
    "transfer_sub_prompts":[[[0,0],[0,5]]],
    "base_tokenizer":"step1",
    "special_tokens":["<S>", "<P>", "<O>"],
    "max_length":384,
    "mask_token":"<extra_id_0>",
    "training_mix":"interleave",
    "stopping_strategy":"all_exhausted",
    "sampling_temperature":0.3,
    "batch_size":8,
    "eval_batch_size":16,
    "learning_rate":0.0001,
    "lr_scheduler":"linear",
    "weight_decay":0.01,
    "streaming":false,
    "training_epochs":5,
    "validation_steps":500,
    "predict_with_generate":false,
    "compute_metrics":false,
    "early_stopping":false,
    "include_inputs_for_metrics":false,
    "metric_for_best_model":"loss",
    "datasets":{
        "train":{
            "celtic_webnlg":{
                "splits":{
                    "validation":["br", "cy", "en", "ga"]
                },
                "Collator1":{
                    "src_text_col":"tripleset",
                    "trg_text_col":"lexicalizations",
                    "fixed_src_lang":"rdf",
                    "src_text_preprocess":"linearization"
                },
                "RemoveColumns1":["tripleset", "lexicalizations", "size", "category", "lang"]
            }
        },
        "validation":{
            "celtic_webnlg":{
                "splits":{
                    "test":["br", "cy", "en", "ga"]
                },
                "Collator1":{
                    "src_text_col":"tripleset",
                    "trg_text_col":"lexicalizations",
                    "fixed_src_lang":"rdf",
                    "src_text_preprocess":"linearization"
                },
                "RemoveColumns1":["tripleset", "lexicalizations", "size", "category", "lang"]
            }
        }
    },
    "Collator2":{
        "tasks":["prefixlm", "suffixlm", "generation", "deshuffling", "maskedlm"],
        "key_format":{
            "task":["task","task"],
            "src_fam":["fam","src_lang"],
            "src_gen":["gen","src_lang"],
            "src_lang":["lang","src_lang"],
            "trg_fam":["fam","trg_lang"],
            "trg_gen":["gen","trg_lang"],
            "trg_lang":["lang","trg_lang"]
        },
        "key_mapping":{
            "task":{
                "translation":0,
                "prefixlm":1,
                "suffixlm":2,
                "generation":3,
                "deshuffling":4,
                "maskedlm":5
            },
            "lang":{
                "rdf":0,
                "en":1,
                "br":2,
                "cy":3,
                "ga":4,
                "gd":5
            },
            "gen":{
                "rdf":0,
                "en":0,
                "br":1,
                "cy":1,
                "ga":2,
                "gd":2
            },
            "fam":{
                "rdf":0,
                "en":0,
                "br":1,
                "cy":1,
                "ga":1,
                "gd":1
            }
        },
        "lang_mapping":{
            "rdf":"AMR Graph",
            "en":"English",
            "br":"Breton",
            "cy":"Welsh",
            "ga":"Irish",
            "gd":"Scottish Gaelic"
        },
        "sub_soft_prompt_lengths":[50,15,15,15,15,15,15]
    },
    "RemoveColumns2":["src_lang", "src_text", "trg_lang", "trg_text"]
}
